%YAML 1.1
%TAG !u! tag:unity3d.com,2011:
--- !u!1 &4610387708535226198
GameObject:
  m_ObjectHideFlags: 0
  m_CorrespondingSourceObject: {fileID: 0}
  m_PrefabInstance: {fileID: 0}
  m_PrefabAsset: {fileID: 0}
  serializedVersion: 6
  m_Component:
  - component: {fileID: 2240425165128148230}
  m_Layer: 0
  m_Name: Cuernos_Armazon_UVs_OP_Prefab
  m_TagString: Untagged
  m_Icon: {fileID: 0}
  m_NavMeshLayer: 0
  m_StaticEditorFlags: 0
  m_IsActive: 1
--- !u!4 &2240425165128148230
Transform:
  m_ObjectHideFlags: 0
  m_CorrespondingSourceObject: {fileID: 0}
  m_PrefabInstance: {fileID: 0}
  m_PrefabAsset: {fileID: 0}
  m_GameObject: {fileID: 4610387708535226198}
  m_LocalRotation: {x: -0, y: -0, z: -0, w: 1}
  m_LocalPosition: {x: 0, y: 0, z: -0}
  m_LocalScale: {x: 100, y: 100, z: 100}
  m_Children:
  - {fileID: 9005485720822133763}
  m_Father: {fileID: 0}
  m_RootOrder: 0
  m_LocalEulerAnglesHint: {x: 0, y: 0, z: 0}
--- !u!1001 &9005485720822001283
PrefabInstance:
  m_ObjectHideFlags: 0
  serializedVersion: 2
  m_Modification:
    m_TransformParent: {fileID: 2240425165128148230}
    m_Modifications:
    - target: {fileID: 100000, guid: 2189615d493fa48498478f6aed779e21, type: 3}
      propertyPath: m_Name
      value: Cuernos_Armazon_UVs_OP
      objectReference: {fileID: 0}
    - target: {fileID: 400000, guid: 2189615d493fa48498478f6aed779e21, type: 3}
      propertyPath: m_LocalPosition.x
      value: -0
      objectReference: {fileID: 0}
    - target: {fileID: 400000, guid: 2189615d493fa48498478f6aed779e21, type: 3}
      propertyPath: m_LocalPosition.y
      value: 0
      objectReference: {fileID: 0}
    - target: {fileID: 400000, guid: 2189615d493fa48498478f6aed779e21, type: 3}
      propertyPath: m_LocalPosition.z
      value: 0
      objectReference: {fileID: 0}
    - target: {fileID: 400000, guid: 2189615d493fa48498478f6aed779e21, type: 3}
      propertyPath: m_LocalRotation.x
      value: -0.7071068
      objectReference: {fileID: 0}
    - target: {fileID: 400000, guid: 2189615d493fa48498478f6aed779e21, type: 3}
      propertyPath: m_LocalRotation.y
      value: 0
      objectReference: {fileID: 0}
    - target: {fileID: 400000, guid: 2189615d493fa48498478f6aed779e21, type: 3}
      propertyPath: m_LocalRotation.z
      value: -0
      objectReference: {fileID: 0}
    - target: {fileID: 400000, guid: 2189615d493fa48498478f6aed779e21, type: 3}
      propertyPath: m_LocalRotation.w
      value: 0.7071068
      objectReference: {fileID: 0}
    - target: {fileID: 400000, guid: 2189615d493fa48498478f6aed779e21, type: 3}
      propertyPath: m_RootOrder
      value: 0
      objectReference: {fileID: 0}
    - target: {fileID: 400000, guid: 2189615d493fa48498478f6aed779e21, type: 3}
      propertyPath: m_LocalEulerAnglesHint.x
      value: 0
      objectReference: {fileID: 0}
    - target: {fileID: 400000, guid: 2189615d493fa48498478f6aed779e21, type: 3}
      propertyPath: m_LocalEulerAnglesHint.y
      value: 0
      objectReference: {fileID: 0}
    - target: {fileID: 400000, guid: 2189615d493fa48498478f6aed779e21, type: 3}
      propertyPath: m_LocalEulerAnglesHint.z
      value: 0
      objectReference: {fileID: 0}
    m_RemovedComponents: []
  m_SourcePrefab: {fileID: 100100000, guid: 2189615d493fa48498478f6aed779e21, type: 3}
--- !u!4 &9005485720822133763 stripped
Transform:
  m_CorrespondingSourceObject: {fileID: 400000, guid: 2189615d493fa48498478f6aed779e21,
    type: 3}
  m_PrefabInstance: {fileID: 9005485720822001283}
  m_PrefabAsset: {fileID: 0}
