%YAML 1.1
%TAG !u! tag:unity3d.com,2011:
--- !u!1 &3840613396677992137
GameObject:
  m_ObjectHideFlags: 0
  m_CorrespondingSourceObject: {fileID: 0}
  m_PrefabInstance: {fileID: 0}
  m_PrefabAsset: {fileID: 0}
  serializedVersion: 6
  m_Component:
  - component: {fileID: 4035254248593286090}
  m_Layer: 0
  m_Name: Geo_PE_Pala_Prefab
  m_TagString: Untagged
  m_Icon: {fileID: 0}
  m_NavMeshLayer: 0
  m_StaticEditorFlags: 0
  m_IsActive: 1
--- !u!4 &4035254248593286090
Transform:
  m_ObjectHideFlags: 0
  m_CorrespondingSourceObject: {fileID: 0}
  m_PrefabInstance: {fileID: 0}
  m_PrefabAsset: {fileID: 0}
  m_GameObject: {fileID: 3840613396677992137}
  m_LocalRotation: {x: 0, y: 0, z: 0, w: 1}
  m_LocalPosition: {x: 0, y: 0, z: 0}
  m_LocalScale: {x: 100, y: 100, z: 10}
  m_Children:
  - {fileID: 9146067619492054152}
  m_Father: {fileID: 0}
  m_RootOrder: 0
  m_LocalEulerAnglesHint: {x: 0, y: 0, z: 0}
--- !u!1001 &9146067619491667464
PrefabInstance:
  m_ObjectHideFlags: 0
  serializedVersion: 2
  m_Modification:
    m_TransformParent: {fileID: 4035254248593286090}
    m_Modifications:
    - target: {fileID: 100000, guid: e068af78fda56ce4d881b6225464a7be, type: 3}
      propertyPath: m_Name
      value: Geo_PE_Pala
      objectReference: {fileID: 0}
    - target: {fileID: 400000, guid: e068af78fda56ce4d881b6225464a7be, type: 3}
      propertyPath: m_LocalPosition.x
      value: -0.012271881
      objectReference: {fileID: 0}
    - target: {fileID: 400000, guid: e068af78fda56ce4d881b6225464a7be, type: 3}
      propertyPath: m_LocalPosition.y
      value: 0
      objectReference: {fileID: 0}
    - target: {fileID: 400000, guid: e068af78fda56ce4d881b6225464a7be, type: 3}
      propertyPath: m_LocalPosition.z
      value: -0.000000007450581
      objectReference: {fileID: 0}
    - target: {fileID: 400000, guid: e068af78fda56ce4d881b6225464a7be, type: 3}
      propertyPath: m_LocalRotation.x
      value: -0.7071068
      objectReference: {fileID: 0}
    - target: {fileID: 400000, guid: e068af78fda56ce4d881b6225464a7be, type: 3}
      propertyPath: m_LocalRotation.y
      value: 0
      objectReference: {fileID: 0}
    - target: {fileID: 400000, guid: e068af78fda56ce4d881b6225464a7be, type: 3}
      propertyPath: m_LocalRotation.z
      value: -0
      objectReference: {fileID: 0}
    - target: {fileID: 400000, guid: e068af78fda56ce4d881b6225464a7be, type: 3}
      propertyPath: m_LocalRotation.w
      value: 0.7071068
      objectReference: {fileID: 0}
    - target: {fileID: 400000, guid: e068af78fda56ce4d881b6225464a7be, type: 3}
      propertyPath: m_RootOrder
      value: 0
      objectReference: {fileID: 0}
    - target: {fileID: 400000, guid: e068af78fda56ce4d881b6225464a7be, type: 3}
      propertyPath: m_LocalEulerAnglesHint.x
      value: 0
      objectReference: {fileID: 0}
    - target: {fileID: 400000, guid: e068af78fda56ce4d881b6225464a7be, type: 3}
      propertyPath: m_LocalEulerAnglesHint.y
      value: 0
      objectReference: {fileID: 0}
    - target: {fileID: 400000, guid: e068af78fda56ce4d881b6225464a7be, type: 3}
      propertyPath: m_LocalEulerAnglesHint.z
      value: 0
      objectReference: {fileID: 0}
    m_RemovedComponents: []
  m_SourcePrefab: {fileID: 100100000, guid: e068af78fda56ce4d881b6225464a7be, type: 3}
--- !u!4 &9146067619492054152 stripped
Transform:
  m_CorrespondingSourceObject: {fileID: 400000, guid: e068af78fda56ce4d881b6225464a7be,
    type: 3}
  m_PrefabInstance: {fileID: 9146067619491667464}
  m_PrefabAsset: {fileID: 0}
